{
    "uploads_dir_abs": "/opt/odna/snakemake/tests/",
    "uploads_dir_rel": "tests/",
    "organelle": [
        "scan"
    ],
    "genes": {
        "gene": {
            "0": "genes_gene_snap",
            "augustus": {
                "radio": {
                    "softmasking": [
                        "softmasked_windowmasker"
                    ],
                    "model": [
                        "saccharomyces"
                    ],
                    "extrinsic": [
                        "extrinsic-cgp.cfg"
                    ]
                }
            },
            "braker": {
                "radio": {
                    "softmasking": [
                        "softmasked_windowmasker"
                    ]
                }
            },
            "genemark": {
                "radio": {
                    "softmasking": [
                        "softmasked_windowmasker"
                    ],
                    "fungus": [
                        "non-fungus"
                    ]
                }
            },
            "glimmerhmm": {
                "radio": {
                    "model": [
                        "arabidopsis"
                    ]
                }
            },
            "snap": {
                "radio": {
                    "model": [
                        "Acanium.hmm"
                    ]
                }
            }
        },
        "mode": {
            "evidence-based": {
                "radio": {
                    "format": [
                        "hints"
                    ],
                    "aligner": [
                        "hisat"
                    ]
                },
                "filter": {
                    "jbrowse": {
                        "cov": {
                            "min": [
                                "1"
                            ],
                            "max": [
                                "100"
                            ]
                        }
                    }
                }
            },
            "evidence-based-prot": {
                "radio": {
                    "format": [
                        "faa"
                    ]
                }
            },
            "orthodbbased": {
                "radio": {
                    "database": [
                        "Fungi"
                    ]
                }
            },
            "0": "genes_mode_ab-initio"
        },
        "function": {
            "swissprot": {
                "filter": {
                    "min": {
                        "qc": [
                            "50"
                        ],
                        "bs": [
                            "250"
                        ],
                        "ident": [
                            "30"
                        ],
                        "evalue": [
                            "10e-3"
                        ]
                    }
                }
            },
            "eggnog": {
                "filter": {
                    "min": {
                        "bs": [
                            "70"
                        ],
                        "evalue": [
                            "10e-4"
                        ]
                    }
                }
            }
        }
    },
    "repeats": {
        "0": [
            "repeats_windowmasker",
            "repeats_repeatmasker"
        ],
        "windowmasker": {
            "filter": {
                "min": {
                    "size": [
                        "100"
                    ]
                }
            }
        },
        "repeatmasker": {
            "filter": {
                "min": {
                    "size": [
                        "100"
                    ]
                },
                "speciesmanual": [
                    "Saccharomyces cerevisiae"
                ]
            },
            "radio": {
                "species": [
                    "default"
                ]
            }
        }
    },
    "trnas": {
        "0": [
            "trnas_trnascan2"
        ],
        "trnascan2": {
            "filter": {
                "min": {
                    "size": [
                        "70"
                    ]
                }
            }
        }
    },
    "rrnas": {
        "0": [
            "rrnas_barrnap"
        ],
        "barrnap": {
            "radio": {
                "kingdom": [
                    "euk"
                ]
            },
            "filter": {
                "lencutoff": [
                    "80"
                ],
                "reject": [
                    "25"
                ],
                "min": {
                    "evalue": [
                        "10e-6"
                    ]
                }
            }
        },
        "silvalsu": {
            "filter": {
                "min": {
                    "qc": [
                        "90"
                    ],
                    "bs": [
                        "100"
                    ],
                    "ident": [
                        "90"
                    ],
                    "evalue": [
                        "10e-3"
                    ]
                }
            }
        }
    },
    "files": {
        "genome": [
            {
                "name": "Saccharomyces cerevisiae (XII)",
                "size": 1093659,
                "type": "application/octet-stream",
                "path": "yeast_i"
            }
        ]
    },
    "dir": "test_yeast_snap_windowmasker_repeatmasker_trnascan_barrnap_organelles",
    "genbank": {
        "specie": "Saccharomyces cerevisiae",
        "strain": "",
        "prefix": "",
        "loc_prefix": "",
        "polyN": "r10u",
        "linkage": "map"
    },
    "priority_list": "",
    "git_commit": "f684b44f12261cc8fd9b5e354cbafd01232715a1",
    "cores": 8
}
